#
# There is insufficient memory for the Java Runtime Environment to continue.
# Native memory allocation (malloc) failed to allocate 1499696 bytes for Chunk::new
# Possible reasons:
#   The system is out of physical RAM or swap space
#   In 32 bit mode, the process size limit was hit
# Possible solutions:
#   Reduce memory load on the system
#   Increase physical memory or swap space
#   Check if swap backing store is full
#   Use 64 bit Java on a 64 bit OS
#   Decrease Java heap size (-Xmx/-Xms)
#   Decrease number of Java threads
#   Decrease Java thread stack sizes (-Xss)
#   Set larger code cache with -XX:ReservedCodeCacheSize=
# This output file may be truncated or incomplete.
#
#  Out of Memory Error (allocation.cpp:390), pid=2984, tid=0x000000000000153c
#
# JRE version: OpenJDK Runtime Environment (8.0_152-b01) (build 1.8.0_152-release-915-b01)
# Java VM: OpenJDK 64-Bit Server VM (25.152-b01 mixed mode windows-amd64 compressed oops)
# Failed to write core dump. Minidumps are not enabled by default on client versions of Windows
#

---------------  T H R E A D  ---------------

Current thread (0x0000000016aa9800):  JavaThread "C2 CompilerThread0" daemon [_thread_in_native, id=5436, stack(0x0000000017ad0000,0x0000000017bd0000)]

Stack: [0x0000000017ad0000,0x0000000017bd0000]
[error occurred during error reporting (printing stack bounds), id 0xc0000005]

Native frames: (J=compiled Java code, j=interpreted, Vv=VM code, C=native code)


Current CompileTask:
C2:  22315 6725       4       sun.reflect.generics.parser.SignatureParser::parsePackageNameAndSimpleClassTypeSignature (139 bytes)


---------------  P R O C E S S  ---------------

Java Threads: ( => current thread )
  0x0000000019282800 JavaThread "Memory manager" [_thread_blocked, id=6040, stack(0x000000001e640000,0x000000001e740000)]
  0x0000000019281800 JavaThread "pool-1-thread-1" [_thread_blocked, id=968, stack(0x000000001e340000,0x000000001e440000)]
  0x0000000019286000 JavaThread "build operations Thread 2" [_thread_blocked, id=3036, stack(0x000000001e040000,0x000000001e140000)]
  0x0000000019284800 JavaThread "build operations" [_thread_blocked, id=2064, stack(0x000000001df40000,0x000000001e040000)]
  0x0000000019284000 JavaThread "Cache worker for Artifact transforms cache (C:\Users\minh\.gradle\caches\transforms-1)" [_thread_blocked, id=3960, stack(0x000000001c190000,0x000000001c290000)]
  0x000000001afa3800 JavaThread "Cache worker for file hash cache (E:\japanese\JPLearning\.gradle\4.1\fileHashes)" [_thread_blocked, id=3156, stack(0x000000001be90000,0x000000001bf90000)]
  0x0000000019115800 JavaThread "File lock request listener" [_thread_in_native, id=3968, stack(0x000000001abc0000,0x000000001acc0000)]
  0x00000000191ba800 JavaThread "Cache worker for file hash cache (C:\Users\minh\.gradle\caches\4.1\fileHashes)" [_thread_blocked, id=4256, stack(0x000000001aac0000,0x000000001abc0000)]
  0x0000000019127800 JavaThread "Stdin handler" [_thread_blocked, id=5640, stack(0x000000001a9c0000,0x000000001aac0000)]
  0x00000000190f6000 JavaThread "Asynchronous log dispatcher for DefaultDaemonConnection: socket connection from /127.0.0.1:50232 to /127.0.0.1:50233" [_thread_blocked, id=5156, stack(0x000000001a8c0000,0x000000001a9c0000)]
  0x0000000018ee8800 JavaThread "Daemon worker" [_thread_in_native, id=5788, stack(0x000000001a7c0000,0x000000001a8c0000)]
  0x0000000018ee1000 JavaThread "Cancel handler" [_thread_blocked, id=3836, stack(0x000000001a6c0000,0x000000001a7c0000)]
  0x0000000018ed4000 JavaThread "Handler for socket connection from /127.0.0.1:50232 to /127.0.0.1:50233" [_thread_in_native, id=5008, stack(0x000000001a3c0000,0x000000001a4c0000)]
  0x0000000018ed1000 JavaThread "Daemon periodic checks" [_thread_blocked, id=472, stack(0x000000001a2c0000,0x000000001a3c0000)]
  0x0000000018f41800 JavaThread "Daemon" [_thread_blocked, id=4784, stack(0x000000001a1c0000,0x000000001a2c0000)]
  0x0000000018f3a800 JavaThread "Incoming local TCP Connector on port 50232" [_thread_in_native, id=5896, stack(0x0000000019fe0000,0x000000001a0e0000)]
  0x0000000016b03800 JavaThread "Service Thread" daemon [_thread_blocked, id=3460, stack(0x0000000017cd0000,0x0000000017dd0000)]
  0x0000000016b00000 JavaThread "C1 CompilerThread1" daemon [_thread_blocked, id=3256, stack(0x0000000017bd0000,0x0000000017cd0000)]
=>0x0000000016aa9800 JavaThread "C2 CompilerThread0" daemon [_thread_in_native, id=5436, stack(0x0000000017ad0000,0x0000000017bd0000)]
  0x0000000016aa7000 JavaThread "Attach Listener" daemon [_thread_blocked, id=5936, stack(0x00000000179d0000,0x0000000017ad0000)]
  0x0000000016aa4000 JavaThread "Signal Dispatcher" daemon [_thread_blocked, id=5504, stack(0x00000000178d0000,0x00000000179d0000)]
  0x0000000016a90000 JavaThread "Finalizer" daemon [_thread_blocked, id=2228, stack(0x00000000176f0000,0x00000000177f0000)]
  0x0000000016a64800 JavaThread "Reference Handler" daemon [_thread_blocked, id=5832, stack(0x00000000175f0000,0x00000000176f0000)]
  0x00000000020cd800 JavaThread "main" [_thread_blocked, id=5508, stack(0x0000000000710000,0x0000000000810000)]

Other Threads:
  0x0000000016a5d000 VMThread [stack: 0x00000000174f0000,0x00000000175f0000] [id=2100]
  0x0000000016b06000 WatcherThread [stack: 0x0000000017dd0000,0x0000000017ed0000] [id=5728]

VM state:not at safepoint (normal execution)

VM Mutex/Monitor currently owned by a thread: None

Heap:
 PSYoungGen      total 163840K, used 42324K [0x00000000d5580000, 0x00000000e1f80000, 0x0000000100000000)
  eden space 147456K, 17% used [0x00000000d5580000,0x00000000d6edcaf0,0x00000000de580000)
  from space 16384K, 99% used [0x00000000dfb80000,0x00000000e0b788e8,0x00000000e0b80000)
  to   space 22528K, 0% used [0x00000000de580000,0x00000000de580000,0x00000000dfb80000)
 ParOldGen       total 102400K, used 33095K [0x0000000080000000, 0x0000000086400000, 0x00000000d5580000)
  object space 102400K, 32% used [0x0000000080000000,0x0000000082051c10,0x0000000086400000)
 Metaspace       used 53674K, capacity 55834K, committed 55936K, reserved 1097728K
  class space    used 7399K, capacity 7988K, committed 8064K, reserved 1048576K

Card table byte_map: [0x0000000011490000,0x00000000118a0000] byte_map_base: 0x0000000011090000

Marking Bits: (ParMarkBitMap*) 0x0000000066c53950
 Begin Bits: [0x0000000011d50000, 0x0000000013d50000)
 End Bits:   [0x0000000013d50000, 0x0000000015d50000)

Polling page: 0x0000000000810000

CodeCache: size=245760Kb used=22492Kb max_used=22492Kb free=223267Kb
 bounds [0x00000000020d0000, 0x00000000036e0000, 0x00000000110d0000]
 total_blobs=7020 nmethods=6267 adapters=667
 compilation: enabled

Compilation events (10 events):
Event: 22.263 Thread 0x0000000016b00000 6806       1       com.google.common.base.Absent::orNull (2 bytes)
Event: 22.263 Thread 0x0000000016b00000 nmethod 6806 0x00000000036d3690 code [0x00000000036d37e0, 0x00000000036d38f0]
Event: 22.263 Thread 0x0000000016b00000 6807       2       org.gradle.internal.classloader.FilteringClassLoader::getResource (22 bytes)
Event: 22.263 Thread 0x0000000016b00000 nmethod 6807 0x00000000036d3950 code [0x00000000036d3ac0, 0x00000000036d3ca8]
Event: 22.266 Thread 0x0000000016b00000 6808       2       org.gradle.plugin.use.internal.DefaultPluginId::equals (41 bytes)
Event: 22.266 Thread 0x0000000016b00000 nmethod 6808 0x00000000036d3d90 code [0x00000000036d3f00, 0x00000000036d4108]
Event: 22.269 Thread 0x0000000016b00000 6809       1       org.gradle.tooling.internal.adapter.ProtocolToModelAdapter$NoOpDecoration::isNoOp (2 bytes)
Event: 22.269 Thread 0x0000000016b00000 nmethod 6809 0x00000000036d4250 code [0x00000000036d43a0, 0x00000000036d44b0]
Event: 22.269 Thread 0x0000000016b00000 6810       2       com.google.common.base.Preconditions::checkPositionIndex (25 bytes)
Event: 22.269 Thread 0x0000000016b00000 nmethod 6810 0x00000000036d4510 code [0x00000000036d4680, 0x00000000036d4878]

GC Heap History (10 events):
Event: 13.142 GC heap before
{Heap before GC invocations=8 (full 1):
 PSYoungGen      total 102912K, used 62269K [0x00000000d5580000, 0x00000000dc680000, 0x0000000100000000)
  eden space 93184K, 56% used [0x00000000d5580000,0x00000000d88d9338,0x00000000db080000)
  from space 9728K, 99% used [0x00000000dbd00000,0x00000000dc6763c0,0x00000000dc680000)
  to   space 11264K, 0% used [0x00000000db080000,0x00000000db080000,0x00000000dbb80000)
 ParOldGen       total 65024K, used 10586K [0x0000000080000000, 0x0000000083f80000, 0x00000000d5580000)
  object space 65024K, 16% used [0x0000000080000000,0x0000000080a569d8,0x0000000083f80000)
 Metaspace       used 34442K, capacity 35356K, committed 35416K, reserved 1079296K
  class space    used 4692K, capacity 5070K, committed 5120K, reserved 1048576K
Event: 13.152 GC heap after
Heap after GC invocations=8 (full 1):
 PSYoungGen      total 104448K, used 10322K [0x00000000d5580000, 0x00000000de780000, 0x0000000100000000)
  eden space 93184K, 0% used [0x00000000d5580000,0x00000000d5580000,0x00000000db080000)
  from space 11264K, 91% used [0x00000000db080000,0x00000000dba94978,0x00000000dbb80000)
  to   space 12288K, 0% used [0x00000000ddb80000,0x00000000ddb80000,0x00000000de780000)
 ParOldGen       total 65024K, used 10658K [0x0000000080000000, 0x0000000083f80000, 0x00000000d5580000)
  object space 65024K, 16% used [0x0000000080000000,0x0000000080a689e8,0x0000000083f80000)
 Metaspace       used 34442K, capacity 35356K, committed 35416K, reserved 1079296K
  class space    used 4692K, capacity 5070K, committed 5120K, reserved 1048576K
}
Event: 13.152 GC heap before
{Heap before GC invocations=9 (full 2):
 PSYoungGen      total 104448K, used 10322K [0x00000000d5580000, 0x00000000de780000, 0x0000000100000000)
  eden space 93184K, 0% used [0x00000000d5580000,0x00000000d5580000,0x00000000db080000)
  from space 11264K, 91% used [0x00000000db080000,0x00000000dba94978,0x00000000dbb80000)
  to   space 12288K, 0% used [0x00000000ddb80000,0x00000000ddb80000,0x00000000de780000)
 ParOldGen       total 65024K, used 10658K [0x0000000080000000, 0x0000000083f80000, 0x00000000d5580000)
  object space 65024K, 16% used [0x0000000080000000,0x0000000080a689e8,0x0000000083f80000)
 Metaspace       used 34442K, capacity 35356K, committed 35416K, reserved 1079296K
  class space    used 4692K, capacity 5070K, committed 5120K, reserved 1048576K
Event: 13.238 GC heap after
Heap after GC invocations=9 (full 2):
 PSYoungGen      total 104448K, used 0K [0x00000000d5580000, 0x00000000de780000, 0x0000000100000000)
  eden space 93184K, 0% used [0x00000000d5580000,0x00000000d5580000,0x00000000db080000)
  from space 11264K, 0% used [0x00000000db080000,0x00000000db080000,0x00000000dbb80000)
  to   space 12288K, 0% used [0x00000000ddb80000,0x00000000ddb80000,0x00000000de780000)
 ParOldGen       total 102400K, used 16349K [0x0000000080000000, 0x0000000086400000, 0x00000000d5580000)
  object space 102400K, 15% used [0x0000000080000000,0x0000000080ff7680,0x0000000086400000)
 Metaspace       used 34442K, capacity 35356K, committed 35416K, reserved 1079296K
  class space    used 4692K, capacity 5070K, committed 5120K, reserved 1048576K
}
Event: 15.022 GC heap before
{Heap before GC invocations=10 (full 2):
 PSYoungGen      total 104448K, used 93184K [0x00000000d5580000, 0x00000000de780000, 0x0000000100000000)
  eden space 93184K, 100% used [0x00000000d5580000,0x00000000db080000,0x00000000db080000)
  from space 11264K, 0% used [0x00000000db080000,0x00000000db080000,0x00000000dbb80000)
  to   space 12288K, 0% used [0x00000000ddb80000,0x00000000ddb80000,0x00000000de780000)
 ParOldGen       total 102400K, used 16349K [0x0000000080000000, 0x0000000086400000, 0x00000000d5580000)
  object space 102400K, 15% used [0x0000000080000000,0x0000000080ff7680,0x0000000086400000)
 Metaspace       used 40761K, capacity 41880K, committed 42112K, reserved 1085440K
  class space    used 5481K, capacity 5892K, committed 6016K, reserved 1048576K
Event: 15.040 GC heap after
Heap after GC invocations=10 (full 2):
 PSYoungGen      total 136704K, used 9876K [0x00000000d5580000, 0x00000000df000000, 0x0000000100000000)
  eden space 124416K, 0% used [0x00000000d5580000,0x00000000d5580000,0x00000000dcf00000)
  from space 12288K, 80% used [0x00000000ddb80000,0x00000000de525260,0x00000000de780000)
  to   space 12800K, 0% used [0x00000000dcf00000,0x00000000dcf00000,0x00000000ddb80000)
 ParOldGen       total 102400K, used 16357K [0x0000000080000000, 0x0000000086400000, 0x00000000d5580000)
  object space 102400K, 15% used [0x0000000080000000,0x0000000080ff9680,0x0000000086400000)
 Metaspace       used 40761K, capacity 41880K, committed 42112K, reserved 1085440K
  class space    used 5481K, capacity 5892K, committed 6016K, reserved 1048576K
}
Event: 18.991 GC heap before
{Heap before GC invocations=11 (full 2):
 PSYoungGen      total 136704K, used 134292K [0x00000000d5580000, 0x00000000df000000, 0x0000000100000000)
  eden space 124416K, 100% used [0x00000000d5580000,0x00000000dcf00000,0x00000000dcf00000)
  from space 12288K, 80% used [0x00000000ddb80000,0x00000000de525260,0x00000000de780000)
  to   space 12800K, 0% used [0x00000000dcf00000,0x00000000dcf00000,0x00000000ddb80000)
 ParOldGen       total 102400K, used 16357K [0x0000000080000000, 0x0000000086400000, 0x00000000d5580000)
  object space 102400K, 15% used [0x0000000080000000,0x0000000080ff9680,0x0000000086400000)
 Metaspace       used 49540K, capacity 51290K, committed 51584K, reserved 1093632K
  class space    used 6717K, capacity 7219K, committed 7296K, reserved 1048576K
Event: 19.009 GC heap after
Heap after GC invocations=11 (full 2):
 PSYoungGen      total 137216K, used 12772K [0x00000000d5580000, 0x00000000e0b80000, 0x0000000100000000)
  eden space 124416K, 0% used [0x00000000d5580000,0x00000000d5580000,0x00000000dcf00000)
  from space 12800K, 99% used [0x00000000dcf00000,0x00000000ddb79370,0x00000000ddb80000)
  to   space 16384K, 0% used [0x00000000dfb80000,0x00000000dfb80000,0x00000000e0b80000)
 ParOldGen       total 102400K, used 21423K [0x0000000080000000, 0x0000000086400000, 0x00000000d5580000)
  object space 102400K, 20% used [0x0000000080000000,0x00000000814ebf98,0x0000000086400000)
 Metaspace       used 49540K, capacity 51290K, committed 51584K, reserved 1093632K
  class space    used 6717K, capacity 7219K, committed 7296K, reserved 1048576K
}
Event: 20.914 GC heap before
{Heap before GC invocations=12 (full 2):
 PSYoungGen      total 137216K, used 137188K [0x00000000d5580000, 0x00000000e0b80000, 0x0000000100000000)
  eden space 124416K, 100% used [0x00000000d5580000,0x00000000dcf00000,0x00000000dcf00000)
  from space 12800K, 99% used [0x00000000dcf00000,0x00000000ddb79370,0x00000000ddb80000)
  to   space 16384K, 0% used [0x00000000dfb80000,0x00000000dfb80000,0x00000000e0b80000)
 ParOldGen       total 102400K, used 21423K [0x0000000080000000, 0x0000000086400000, 0x00000000d5580000)
  object space 102400K, 20% used [0x0000000080000000,0x00000000814ebf98,0x0000000086400000)
 Metaspace       used 53012K, capacity 54980K, committed 55296K, reserved 1097728K
  class space    used 7267K, capacity 7830K, committed 7936K, reserved 1048576K
Event: 20.966 GC heap after
Heap after GC invocations=12 (full 2):
 PSYoungGen      total 163840K, used 16354K [0x00000000d5580000, 0x00000000e1f80000, 0x0000000100000000)
  eden space 147456K, 0% used [0x00000000d5580000,0x00000000d5580000,0x00000000de580000)
  from space 16384K, 99% used [0x00000000dfb80000,0x00000000e0b788e8,0x00000000e0b80000)
  to   space 22528K, 0% used [0x00000000de580000,0x00000000de580000,0x00000000dfb80000)
 ParOldGen       total 102400K, used 33095K [0x0000000080000000, 0x0000000086400000, 0x00000000d5580000)
  object space 102400K, 32% used [0x0000000080000000,0x0000000082051c10,0x0000000086400000)
 Metaspace       used 53012K, capacity 54980K, committed 55296K, reserved 1097728K
  class space    used 7267K, capacity 7830K, committed 7936K, reserved 1048576K
}

Deoptimization events (10 events):
Event: 20.089 Thread 0x0000000018ee8800 Uncommon trap: reason=class_check action=maybe_recompile pc=0x000000000287c0c0 method=java.lang.Throwable.<init>(Ljava/lang/String;Ljava/lang/Throwable;)V @ 24
Event: 20.089 Thread 0x0000000018ee8800 Uncommon trap: reason=class_check action=maybe_recompile pc=0x000000000287c0c0 method=java.lang.Throwable.<init>(Ljava/lang/String;Ljava/lang/Throwable;)V @ 24
Event: 20.089 Thread 0x0000000018ee8800 Uncommon trap: reason=class_check action=maybe_recompile pc=0x000000000287c0c0 method=java.lang.Throwable.<init>(Ljava/lang/String;Ljava/lang/Throwable;)V @ 24
Event: 20.795 Thread 0x0000000018ee8800 Uncommon trap: reason=bimorphic action=maybe_recompile pc=0x000000000228d1d8 method=java.util.Arrays.binarySearch0([Ljava/lang/Object;IILjava/lang/Object;Ljava/util/Comparator;)I @ 48
Event: 20.795 Thread 0x0000000018ee8800 Uncommon trap: reason=bimorphic action=maybe_recompile pc=0x000000000228d1d8 method=java.util.Arrays.binarySearch0([Ljava/lang/Object;IILjava/lang/Object;Ljava/util/Comparator;)I @ 48
Event: 20.795 Thread 0x0000000018ee8800 Uncommon trap: reason=bimorphic action=maybe_recompile pc=0x000000000228d1d8 method=java.util.Arrays.binarySearch0([Ljava/lang/Object;IILjava/lang/Object;Ljava/util/Comparator;)I @ 48
Event: 20.795 Thread 0x0000000018ee8800 Uncommon trap: reason=bimorphic action=maybe_recompile pc=0x000000000228d1d8 method=java.util.Arrays.binarySearch0([Ljava/lang/Object;IILjava/lang/Object;Ljava/util/Comparator;)I @ 48
Event: 21.177 Thread 0x0000000018ee8800 Uncommon trap: reason=unstable_if action=reinterpret pc=0x00000000031f3d2c method=org.apache.ivy.core.IvyPatternHelper.substituteTokens(Ljava/lang/String;Ljava/util/Map;)Ljava/lang/String; @ 438
Event: 21.306 Thread 0x0000000018ee8800 Uncommon trap: reason=unstable_if action=reinterpret pc=0x00000000031bf2a0 method=org.apache.ivy.core.IvyPatternHelper.substituteTokens(Ljava/lang/String;Ljava/util/Map;)Ljava/lang/String; @ 438
Event: 22.154 Thread 0x0000000018ee8800 Uncommon trap: reason=unstable_if action=reinterpret pc=0x0000000003187688 method=com.esotericsoftware.kryo.io.Input.readUtf8(I)V @ 79

Classes redefined (0 events):
No events

Internal exceptions (10 events):
Event: 22.188 Thread 0x0000000018ee8800 Exception <a 'java/lang/ClassNotFoundException': com/google/common/collect/AbstractMapBasedMultimap$WrappedCollectionBeanInfo> (0x00000000d685ef78) thrown at [D:\src\AOSP-openjdk-cygwin\jdk8u\hotspot\src\share\vm\classfile\systemDictionary.cpp, line 210]
Event: 22.189 Thread 0x0000000018ee8800 Exception <a 'java/lang/ClassNotFoundException': com/google/common/collect/AbstractMapBasedMultimap$WrappedCollectionCustomizer> (0x00000000d686ff20) thrown at [D:\src\AOSP-openjdk-cygwin\jdk8u\hotspot\src\share\vm\classfile\systemDictionary.cpp, line 210
Event: 22.189 Thread 0x0000000018ee8800 Exception <a 'java/lang/ClassNotFoundException': com/google/common/collect/AbstractMapBasedMultimap$WrappedListCustomizer> (0x00000000d6896300) thrown at [D:\src\AOSP-openjdk-cygwin\jdk8u\hotspot\src\share\vm\classfile\systemDictionary.cpp, line 210]
Event: 22.190 Thread 0x0000000018ee8800 Exception <a 'java/lang/ClassNotFoundException': com/google/common/collect/AbstractMapBasedMultimap$RandomAccessWrappedListCustomizer> (0x00000000d68b94c0) thrown at [D:\src\AOSP-openjdk-cygwin\jdk8u\hotspot\src\share\vm\classfile\systemDictionary.cpp, li
Event: 22.196 Thread 0x0000000018ee8800 Exception <a 'java/lang/ClassNotFoundException': org/jetbrains/plugins/gradle/model/DefaultExternalLibraryDependencyBeanInfo> (0x00000000d692db20) thrown at [D:\src\AOSP-openjdk-cygwin\jdk8u\hotspot\src\share\vm\classfile\systemDictionary.cpp, line 210]
Event: 22.197 Thread 0x0000000018ee8800 Exception <a 'java/lang/ClassNotFoundException': org/jetbrains/plugins/gradle/model/AbstractExternalDependencyBeanInfo> (0x00000000d693dde0) thrown at [D:\src\AOSP-openjdk-cygwin\jdk8u\hotspot\src\share\vm\classfile\systemDictionary.cpp, line 210]
Event: 22.197 Thread 0x0000000018ee8800 Exception <a 'java/lang/ClassNotFoundException': org/jetbrains/plugins/gradle/model/AbstractExternalDependencyCustomizer> (0x00000000d694e2a8) thrown at [D:\src\AOSP-openjdk-cygwin\jdk8u\hotspot\src\share\vm\classfile\systemDictionary.cpp, line 210]
Event: 22.197 Thread 0x0000000018ee8800 Exception <a 'java/lang/ClassNotFoundException': org/jetbrains/plugins/gradle/model/DefaultExternalLibraryDependencyCustomizer> (0x00000000d697ba80) thrown at [D:\src\AOSP-openjdk-cygwin\jdk8u\hotspot\src\share\vm\classfile\systemDictionary.cpp, line 210]
Event: 22.202 Thread 0x0000000018ee8800 Exception <a 'java/lang/ClassNotFoundException': org/gradle/api/internal/artifacts/result/DefaultResolvedArtifactResultBeanInfo> (0x00000000d6a02648) thrown at [D:\src\AOSP-openjdk-cygwin\jdk8u\hotspot\src\share\vm\classfile\systemDictionary.cpp, line 210
Event: 22.203 Thread 0x0000000018ee8800 Exception <a 'java/lang/ClassNotFoundException': org/gradle/api/internal/artifacts/result/DefaultResolvedArtifactResultCustomizer> (0x00000000d6a2d130) thrown at [D:\src\AOSP-openjdk-cygwin\jdk8u\hotspot\src\share\vm\classfile\systemDictionary.cpp, line 2

Events (10 events):
Event: 22.261 loading class com/android/builder/model/level2/GlobalLibraryMap
Event: 22.261 loading class com/android/builder/model/level2/GlobalLibraryMap done
Event: 22.261 loading class com/android/builder/model/NativeAndroidProject
Event: 22.261 loading class com/android/builder/model/NativeAndroidProject done
Event: 22.270 loading class com/android/build/gradle/internal/ide/ArtifactMetaDataImpl
Event: 22.270 loading class com/android/build/gradle/internal/ide/ArtifactMetaDataImpl done
Event: 22.270 loading class com/android/builder/model/ArtifactMetaData
Event: 22.270 loading class com/android/builder/model/ArtifactMetaData done
Event: 22.270 loading class com/android/build/gradle/internal/ide/AaptOptionsImpl
Event: 22.270 loading class com/android/build/gradle/internal/ide/AaptOptionsImpl done


Dynamic libraries:
0x00007ff76f0a0000 - 0x00007ff76f0d1000 	C:\Program Files\Android\Android Studio\jre\bin\java.exe
0x00007ffbdca70000 - 0x00007ffbdcc32000 	C:\Windows\SYSTEM32\ntdll.dll
0x00007ffbdb300000 - 0x00007ffbdb3ad000 	C:\Windows\system32\KERNEL32.DLL
0x00007ffbd9f60000 - 0x00007ffbda13d000 	C:\Windows\system32\KERNELBASE.dll
0x00007ffbdaba0000 - 0x00007ffbdac46000 	C:\Windows\system32\ADVAPI32.dll
0x00007ffbdac60000 - 0x00007ffbdacfd000 	C:\Windows\system32\msvcrt.dll
0x00007ffbdad00000 - 0x00007ffbdad5b000 	C:\Windows\system32\sechost.dll
0x00007ffbdc940000 - 0x00007ffbdca66000 	C:\Windows\system32\RPCRT4.dll
0x00007ffbda140000 - 0x00007ffbda28e000 	C:\Windows\system32\USER32.dll
0x00007ffbdb170000 - 0x00007ffbdb2f5000 	C:\Windows\system32\GDI32.dll
0x00007ffbd3340000 - 0x00007ffbd35b4000 	C:\Windows\WinSxS\amd64_microsoft.windows.common-controls_6595b64144ccf1df_6.0.10240.16384_none_f41f7b285750ef43\COMCTL32.dll
0x00007ffbdb130000 - 0x00007ffbdb166000 	C:\Windows\system32\IMM32.DLL
0x00007ffbdaa40000 - 0x00007ffbdab9c000 	C:\Windows\system32\MSCTF.dll
0x00000000662d0000 - 0x00000000663a2000 	C:\Program Files\Android\Android Studio\jre\jre\bin\msvcr100.dll
0x0000000066490000 - 0x0000000066cce000 	C:\Program Files\Android\Android Studio\jre\jre\bin\server\jvm.dll
0x00007ffbdaa30000 - 0x00007ffbdaa38000 	C:\Windows\system32\PSAPI.DLL
0x00007ffbd40c0000 - 0x00007ffbd40c9000 	C:\Windows\SYSTEM32\WSOCK32.dll
0x00007ffbd0fa0000 - 0x00007ffbd0fc3000 	C:\Windows\SYSTEM32\WINMM.dll
0x00007ffbdad60000 - 0x00007ffbdadc9000 	C:\Windows\system32\WS2_32.dll
0x00007ffbda970000 - 0x00007ffbda978000 	C:\Windows\system32\NSI.dll
0x00007ffbd3ad0000 - 0x00007ffbd3ada000 	C:\Windows\SYSTEM32\VERSION.dll
0x00007ffbd0f70000 - 0x00007ffbd0f9c000 	C:\Windows\SYSTEM32\WINMMBASE.dll
0x00007ffbd9710000 - 0x00007ffbd9754000 	C:\Windows\system32\cfgmgr32.dll
0x00007ffbd7e10000 - 0x00007ffbd7e37000 	C:\Windows\SYSTEM32\DEVOBJ.dll
0x00007ffbd40b0000 - 0x00007ffbd40bf000 	C:\Program Files\Android\Android Studio\jre\jre\bin\verify.dll
0x00007ffbcd8a0000 - 0x00007ffbcd8c9000 	C:\Program Files\Android\Android Studio\jre\jre\bin\java.dll
0x00007ffbd4090000 - 0x00007ffbd40a6000 	C:\Program Files\Android\Android Studio\jre\jre\bin\zip.dll
0x00007ffbdb3b0000 - 0x00007ffbdc8d5000 	C:\Windows\system32\SHELL32.dll
0x00007ffbd9870000 - 0x00007ffbd9e98000 	C:\Windows\system32\windows.storage.dll
0x00007ffbdadd0000 - 0x00007ffbdb04c000 	C:\Windows\system32\combase.dll
0x00007ffbda590000 - 0x00007ffbda5e1000 	C:\Windows\system32\shlwapi.dll
0x00007ffbd94a0000 - 0x00007ffbd94af000 	C:\Windows\system32\kernel.appcore.dll
0x00007ffbd9ea0000 - 0x00007ffbd9f53000 	C:\Windows\system32\shcore.dll
0x00007ffbd94d0000 - 0x00007ffbd951a000 	C:\Windows\system32\powrprof.dll
0x00007ffbd94b0000 - 0x00007ffbd94c3000 	C:\Windows\system32\profapi.dll
0x00007ffbcd880000 - 0x00007ffbcd89a000 	C:\Program Files\Android\Android Studio\jre\jre\bin\net.dll
0x00007ffbd8ca0000 - 0x00007ffbd8cfd000 	C:\Windows\system32\mswsock.dll
0x00007ffbcd840000 - 0x00007ffbcd851000 	C:\Program Files\Android\Android Studio\jre\jre\bin\nio.dll
0x00007ffbcd700000 - 0x00007ffbcd71e000 	C:\Users\minh\.gradle\native\25\windows-amd64\native-platform.dll
0x00007ffbd17e0000 - 0x00007ffbd17ed000 	C:\Program Files\Android\Android Studio\jre\jre\bin\management.dll
0x00007ffbd8d00000 - 0x00007ffbd8d17000 	C:\Windows\SYSTEM32\CRYPTSP.dll
0x00007ffbd93d0000 - 0x00007ffbd93f8000 	C:\Windows\SYSTEM32\bcrypt.dll
0x00007ffbd8950000 - 0x00007ffbd8983000 	C:\Windows\system32\rsaenh.dll
0x00007ffbd8af0000 - 0x00007ffbd8b0f000 	C:\Windows\SYSTEM32\USERENV.dll
0x00007ffbd9260000 - 0x00007ffbd92cb000 	C:\Windows\system32\bcryptprimitives.dll
0x00007ffbd8e70000 - 0x00007ffbd8e7b000 	C:\Windows\SYSTEM32\CRYPTBASE.dll
0x00007ffbd4b60000 - 0x00007ffbd4b98000 	C:\Windows\SYSTEM32\IPHLPAPI.DLL
0x00007ffbd4b10000 - 0x00007ffbd4b1b000 	C:\Windows\SYSTEM32\WINNSI.DLL
0x00007ffbd2ff0000 - 0x00007ffbd3006000 	C:\Windows\SYSTEM32\dhcpcsvc6.DLL
0x00007ffbd2fd0000 - 0x00007ffbd2fea000 	C:\Windows\SYSTEM32\dhcpcsvc.DLL

VM Arguments:
jvm_args: -XX:MaxHeapSize=2048m -Xmx2048m -Dfile.encoding=windows-1252 -Duser.country=US -Duser.language=en -Duser.variant 
java_command: org.gradle.launcher.daemon.bootstrap.GradleDaemon 4.1
java_class_path (initial): C:\Users\minh\.gradle\wrapper\dists\gradle-4.1-all\bzyivzo6n839fup2jbap0tjew\gradle-4.1\lib\gradle-launcher-4.1.jar
Launcher Type: SUN_STANDARD

Environment Variables:
JAVA_HOME=C:\Program Files\Java\jdk-9
PATH=C:\Program Files\Java\jdk-9\bin;C:\ProgramData\Oracle\Java\javapath;C:\Program Files (x86)\Common Files\Intel\Shared Files\cpp\bin\Intel64;C:\Program Files (x86)\Intel\iCLS Client\;C:\Program Files\Intel\iCLS Client\;C:\Windows\system32;C:\Windows;C:\Windows\System32\Wbem;C:\Windows\System32\WindowsPowerShell\v1.0\;C:\Program Files (x86)\Intel\Intel(R) Management Engine Components\DAL;C:\Program Files\Intel\Intel(R) Management Engine Components\DAL;C:\Program Files (x86)\Intel\Intel(R) Management Engine Components\IPT;C:\Program Files\Intel\Intel(R) Management Engine Components\IPT;C:\Program Files (x86)\Skype\Phone\;C:\Program Files\Git\cmd;C:\xampp\php;C:\ProgramData\ComposerSetup\bin;C:\xampp\php\;C:\Program Files\PuTTY\;C:\Users\minh\AppData\Roaming\Composer\vendor\bin
USERNAME=minh
OS=Windows_NT
PROCESSOR_IDENTIFIER=Intel64 Family 6 Model 94 Stepping 3, GenuineIntel



---------------  S Y S T E M  ---------------

OS: Windows 10.0 , 64 bit Build 10240 (10.0.10240.16384)

CPU:total 2 (initial active 2) (2 cores per cpu, 1 threads per core) family 6 model 94 stepping 3, cmov, cx8, fxsr, mmx, sse, sse2, sse3, ssse3, sse4.1, sse4.2, popcnt, aes, clmul, erms, 3dnowpref, lzcnt, tsc, tscinvbit

Memory: 4k page, physical 8281044k(4079236k free), swap 10378196k(2336k free)

vm_info: OpenJDK 64-Bit Server VM (25.152-b01) for windows-amd64 JRE (1.8.0_152-release-915-b01), built by "builder" with MS VC++ 10.0 (VS2010)

time: Wed Jan 17 10:43:59 2018
elapsed time: 22 seconds (0d 0h 0m 22s)

